{
  "$schema": "https://themost-framework.github.io/themost/models/2018/2/schema.json",
  "name": "SMS",
  "title": "SMS",
  "hidden": false,
  "sealed": false,
  "abstract": false,
  "version": "1.0",
  "classPath": "./models/sms-model",
  "implements": "Message",
  "fields": [
    {
      "name": "body",
      "title": "Body",
      "description": "The body of this message.",
      "type": "Text",
      "size": 1600
    },
    {
      "name": "recipient",
      "title": "Recipient",
      "description": "The email addresses of the primary recipients of this message.",
      "type": "User",
      "nullable": false
    },
    {
      "name": "category",
      "title": "Category",
      "description": "The category of this message.",
      "type": "Text"
    },
    {
      "name": "dateReceived",
      "title": "Date Received",
      "description": "The date and time when the message was received.",
      "type": "DateTime"
    },
    {
      "name": "identifier",
      "title": "Message Identifier",
      "description": "A string that represents a numeric or alphanumeric sequence which identifies uniquely the current item.",
      "nullable": true,
      "type": "Guid",
      "size": 36
    },
    {
      "name": "smsStatus",
      "title": "smsStatus",
      "description": "A smsStatus of a SMS represents its status; particularly useful when an event is cancelled or scheduled.",
      "type": "SMSStatusType",
      "expandable": true,
      "value":"javascript:return { alternateName:'ScheduledSMSStatus' };"
    }
  ],
  "eventListeners": [
    {
      "type": "@themost/data/previous-state-listener"
    },
    {
      "type": "./listeners/after-save-send-sms.listener.js"
    }
  ],
  "privileges": [
    {
      "mask": 15,
      "type": "global"
    },
    {
      "mask": 15,
      "type": "global",
      "account": "Administrators"
    },
    {
      "mask": 15,
      "type": "self",
      "account": "recipient/department/department eq departments()"
    }
  ]
}
